===========================================================================
org.apache.commons.math3.stat.descriptive.summary.SumOfSquares.copy():::ENTER
this.value one of { 0.0, 30.0, 3185.52 }
this.n one of { 0, 4, 18 }
===========================================================================
org.apache.commons.math3.stat.descriptive.rank.Min.copy():::EXIT
this.n one of { 0, 4, 17 }
===========================================================================
org.apache.commons.math3.geometry.partitioning.AbstractRegion.recurseSides(org.apache.commons.math3.geometry.partitioning.BSPTree, org.apache.commons.math3.geometry.partitioning.SubHyperplane, org.apache.commons.math3.geometry.partitioning.AbstractRegion$Sides):::EXIT
(node.cut == null)  ==>  (node.attribute != null)
this.tree.minus.attribute.getClass().getName() == this.tree.attribute.getClass().getName()
(node.cut != null)  ==>  (this.tree.attribute.getClass().getName() == org.apache.commons.math3.geometry.partitioning.BoundaryAttribute.class)
this.tree.cut.getClass().getName() != node.parent.attribute.getClass().getName()
node.parent.cut.getClass().getName() != node.parent.attribute.getClass().getName()
this.tree.attribute.getClass().getName() != node.minus.cut.getClass().getName()
(node.cut != null)  ==>  (this.tree.minus.attribute.getClass().getName() != node.minus.cut.getClass().getName())
(node.cut != null)  ==>  (this.tree.attribute.getClass().getName() != node.minus.cut.getClass().getName())
node.minus.cut.getClass().getName() != node.minus.attribute.getClass().getName()
this.tree.attribute.getClass().getName() != node.cut.getClass().getName()
node.cut.getClass().getName() != node.parent.attribute.getClass().getName()
this.tree.minus.attribute.getClass().getName() == node.parent.attribute.getClass().getName()
(node.cut != null)  ==>  (this.tree.minus.attribute.getClass().getName() == node.attribute.getClass().getName())
this.barycenter.getClass().getName() != node.parent.attribute.getClass().getName()
this.tree.attribute.getClass().getName() != node.plus.attribute.getClass().getName()
(node.cut != null)  <==>  (node.parent.attribute.getClass().getName() == node.attribute.getClass().getName())
node.parent.attribute.getClass().getName() != orig(this.getClass().getName())
node.parent.attribute.getClass().getName() != orig(sub.getClass().getName())
node.parent.attribute.getClass().getName() == orig(node.parent.attribute.getClass().getName())
(node.cut == null)  <==>  (this.tree.plus.attribute.getClass().getName() == node.attribute.getClass().getName())
this.tree.plus.attribute.getClass().getName() != node.parent.attribute.getClass().getName()
(node.cut != null)  ==>  (this.tree.attribute.getClass().getName() == node.attribute.getClass().getName())
this.tree.attribute.getClass().getName() != node.parent.cut.getClass().getName()
(node.cut != null)  ==>  (node.minus.cut.getClass().getName() != node.minus.attribute.getClass().getName())
(node.cut != null)  ==>  (node.minus.cut.getClass().getName() != node.parent.attribute.getClass().getName())
(node.cut == null)  <==>  (node.attribute.getClass().getName() == java.lang.Boolean.class)
(node.cut != null)  ==>  (node.minus.cut.getClass().getName() != node.attribute.getClass().getName())
(node.cut != null)  ==>  (node.cut.getClass().getName() != node.attribute.getClass().getName())
node.plus.attribute.getClass().getName() != node.attribute.getClass().getName()
node.plus.attribute.getClass().getName() != node.parent.attribute.getClass().getName()
(node.cut != null)  <==>  (node.attribute.getClass().getName() == org.apache.commons.math3.geometry.partitioning.BoundaryAttribute.class)
this.tree.minus.cut.getClass().getName() != node.parent.attribute.getClass().getName()
(node.cut != null)  ==>  (node.cut.getClass().getName() != node.parent.attribute.getClass().getName())
node.minus.cut.getClass().getName() != node.attribute.getClass().getName()
(node.cut != null)  ==>  (this.tree.attribute.getClass().getName() != node.cut.getClass().getName())
this.tree.attribute.getClass().getName() == node.parent.attribute.getClass().getName()
(node.cut != null)  <==>  (this.tree.plus.attribute.getClass().getName() != node.attribute.getClass().getName())
this.tree.plus.attribute.getClass().getName() != this.tree.attribute.getClass().getName()
node.parent.attribute.getClass().getName() == org.apache.commons.math3.geometry.partitioning.BoundaryAttribute.class
(node.cut != null)  ==>  (node.plus.attribute.getClass().getName() != node.attribute.getClass().getName())
this.tree.minus.attribute.getClass().getName() != node.minus.cut.getClass().getName()
(node.cut != null)  ==>  (this.tree.attribute.getClass().getName() != node.plus.attribute.getClass().getName())
node.minus.cut.getClass().getName() != node.parent.attribute.getClass().getName()
(node.cut == null)  <==>  (node.parent.attribute.getClass().getName() != node.attribute.getClass().getName())
node.cut.getClass().getName() != node.attribute.getClass().getName()
(node.cut != null)  ==>  (node.plus.attribute.getClass().getName() != node.parent.attribute.getClass().getName())
===========================================================================
org.apache.commons.math3.geometry.euclidean.twod.PolygonsSet.followLoop(org.apache.commons.math3.geometry.partitioning.utilities.AVLTree$Node, org.apache.commons.math3.geometry.partitioning.utilities.AVLTree):::EXIT
sorted.top.skew != null
sorted.top.element != null
===========================================================================
org.apache.commons.math3.geometry.partitioning.utilities.AVLTree.getNotSmaller(java.lang.Comparable):::EXIT
this.top.element.getClass().getName() == return.element.getClass().getName()
this.top.element.getClass().getName() == return.right.element.getClass().getName()
org.apache.commons.math3.geometry.partitioning.utilities.AVLTree.this.top == orig(org.apache.commons.math3.geometry.partitioning.utilities.AVLTree.this.top)
this.top.element.getClass().getName() == return.left.element.getClass().getName()
this.top.element.getClass().getName() == orig(this.top.element.getClass().getName())
this.top.element.getClass().getName() == return.parent.element.getClass().getName()
===========================================================================
org.apache.commons.math3.geometry.partitioning.AbstractRegion.recurseSides(org.apache.commons.math3.geometry.partitioning.BSPTree, org.apache.commons.math3.geometry.partitioning.SubHyperplane, org.apache.commons.math3.geometry.partitioning.AbstractRegion$Sides):::EXIT510
this.tree.attribute.getClass().getName() == org.apache.commons.math3.geometry.partitioning.BoundaryAttribute.class
this.tree.minus.attribute.getClass().getName() == node.attribute.getClass().getName()
node.attribute.getClass().getName() == org.apache.commons.math3.geometry.partitioning.BoundaryAttribute.class
this.tree.plus.attribute.getClass().getName() != node.attribute.getClass().getName()
node.parent.attribute.getClass().getName() == node.attribute.getClass().getName()
this.tree.attribute.getClass().getName() == node.attribute.getClass().getName()
===========================================================================
org.apache.commons.math3.geometry.partitioning.utilities.AVLTree.getSmallest():::EXIT
this.top.right.element.getClass().getName() == return.parent.element.getClass().getName()
this.top.right.element.getClass().getName() == orig(this.top.right.element.getClass().getName())
this.top.right.parent == orig(this.top.right.parent)
this.top.right.element.getClass().getName() == return.right.element.getClass().getName()
===========================================================================
org.apache.commons.math3.geometry.partitioning.BSPTree.merge(org.apache.commons.math3.geometry.partitioning.BSPTree, org.apache.commons.math3.geometry.partitioning.BSPTree$LeafMerger, org.apache.commons.math3.geometry.partitioning.BSPTree, boolean):::EXIT
this.minus.parent.attribute.getClass().getName() != tree.minus.cut.getClass().getName()
===========================================================================
org.apache.commons.math3.stat.descriptive.rank.Max.copy():::EXIT
return.value one of { 4.0, 21.0, Double.NaN }
this.n one of { 0, 4, 17 }
this.value one of { 4.0, 21.0, Double.NaN }
===========================================================================
org.apache.commons.math3.stat.descriptive.rank.Min.copy(org.apache.commons.math3.stat.descriptive.rank.Min, org.apache.commons.math3.stat.descriptive.rank.Min):::ENTER
source.n one of { 0, 4, 17 }
===========================================================================
org.apache.commons.math3.geometry.partitioning.AbstractRegion.isEmpty(org.apache.commons.math3.geometry.partitioning.BSPTree):::EXIT
node.parent.attribute.getClass().getName() != orig(this.getClass().getName())
(node.cut != null)  ==>  (this.tree.attribute.getClass().getName() == org.apache.commons.math3.geometry.partitioning.BoundaryAttribute.class)
(return == false)  ==>  (node.cut.getClass().getName() == node.minus.cut.getClass().getName())
this.tree.cut.getClass().getName() != node.parent.attribute.getClass().getName()
(return == false)  ==>  (node.minus.attribute.getClass().getName() != orig(this.getClass().getName()))
(return == false)  ==>  (this.tree.cut.getClass().getName() == node.cut.getClass().getName())
(return == true)  ==>  (node.parent.attribute.getClass().getName() != node.attribute.getClass().getName())
(return == true)  ==>  (this.tree.parent == node.plus)
this.barycenter.getClass().getName() != node.minus.cut.getClass().getName()
(return == false)  ==>  (node.cut.getClass().getName() != node.attribute.getClass().getName())
(return == true)  ==>  (this.tree.plus.cut.getClass().getName() == org.apache.commons.math3.geometry.euclidean.oned.SubOrientedPoint.class)
(return == true)  ==>  (node.cut == null)
(return == false)  ==>  (this.tree.plus.cut.getClass().getName() != node.minus.attribute.getClass().getName())
this.tree.plus.attribute.getClass().getName() != node.parent.attribute.getClass().getName()
(node.cut != null)  ==>  (this.tree.attribute.getClass().getName() == node.attribute.getClass().getName())
(return == false)  ==>  (this.tree.attribute.getClass().getName() != node.cut.getClass().getName())
(return == false)  ==>  (node.plus.attribute.getClass().getName() != node.parent.cut.getClass().getName())
(return == false)  ==>  (node.cut.getClass().getName() != node.plus.attribute.getClass().getName())
(return == false)  ==>  (this.tree.cut.getClass().getName() == node.plus.cut.getClass().getName())
(return == false)  ==>  (node.plus.cut.getClass().getName() != orig(this.getClass().getName()))
(node.cut != null)  ==>  (node.minus.attribute.getClass().getName() != node.attribute.getClass().getName())
(node.cut != null)  ==>  (node.cut.getClass().getName() != node.parent.attribute.getClass().getName())
(node.cut != null)  ==>  (this.tree.attribute.getClass().getName() != node.cut.getClass().getName())
(return == false)  ==>  (this.tree.minus.cut.getClass().getName() != node.plus.attribute.getClass().getName())
node.parent.attribute.getClass().getName() == org.apache.commons.math3.geometry.partitioning.BoundaryAttribute.class
(return == false)  ==>  (node.plus.cut.getClass().getName() != node.minus.attribute.getClass().getName())
(return == false)  ==>  (this.tree.plus.cut.getClass().getName() == node.cut.getClass().getName())
(node.cut == null)  <==>  (node.parent.attribute.getClass().getName() != node.attribute.getClass().getName())
node.minus.attribute.getClass().getName() != node.attribute.getClass().getName()
(return == false)  ==>  (node.cut.getClass().getName() != orig(this.getClass().getName()))
(return == true)  ==>  (node.attribute != null)
(return == false)  ==>  (this.tree.attribute.getClass().getName() != node.plus.attribute.getClass().getName())
node.parent.cut.getClass().getName() != node.parent.attribute.getClass().getName()
this.tree.attribute.getClass().getName() != node.minus.cut.getClass().getName()
(return == true)  ==>  (node.plus == null)
node.minus.attribute.getClass().getName() != node.parent.attribute.getClass().getName()
(return == false)  ==>  (this.tree.minus.attribute.getClass().getName() != node.cut.getClass().getName())
this.tree.minus.attribute.getClass().getName() == node.parent.attribute.getClass().getName()
(node.cut != null)  ==>  (this.tree.minus.attribute.getClass().getName() == node.attribute.getClass().getName())
(node.cut != null)  ==>  (this.tree.attribute.getClass().getName() != node.minus.cut.getClass().getName())
(return == false)  ==>  (this.barycenter.getClass().getName() != node.plus.attribute.getClass().getName())
(return == false)  <==>  (this.tree.plus.cut.getClass().getName() == this.tree.minus.cut.getClass().getName())
node.parent.attribute.getClass().getName() == orig(node.parent.attribute.getClass().getName())
(node.cut == null)  <==>  (this.tree.plus.attribute.getClass().getName() == node.attribute.getClass().getName())
(node.cut == null)  <==>  (this.tree.plus.cut.getClass().getName() != node.attribute.getClass().getName())
(return == false)  ==>  (this.tree.minus.cut.getClass().getName() != node.minus.attribute.getClass().getName())
(return == true)  ==>  (node.attribute.getClass().getName() == java.lang.Boolean.class)
(return == false)  ==>  (this.tree.cut.getClass().getName() != node.minus.attribute.getClass().getName())
(return == false)  ==>  (node.minus.cut.getClass().getName() != orig(this.getClass().getName()))
this.tree.plus.attribute.getClass().getName() != this.tree.attribute.getClass().getName()
(return == false)  ==>  (this.tree.plus.attribute.getClass().getName() != node.minus.cut.getClass().getName())
(return == false)  ==>  (node.cut.getClass().getName() != node.parent.attribute.getClass().getName())
(return == false)  ==>  (this.tree.cut.getClass().getName() == node.minus.cut.getClass().getName())
(return == false)  ==>  (node.plus.attribute.getClass().getName() != node.parent.attribute.getClass().getName())
this.tree.minus.attribute.getClass().getName() == this.tree.attribute.getClass().getName()
(return == false)  ==>  (this.tree.minus.attribute.getClass().getName() != node.plus.cut.getClass().getName())
(node.cut != null)  ==>  (this.tree.minus.attribute.getClass().getName() != node.minus.cut.getClass().getName())
(return == false)  ==>  (node.cut.getClass().getName() == node.plus.cut.getClass().getName())
(return == false)  ==>  (this.tree.plus.attribute.getClass().getName() != node.cut.getClass().getName())
this.tree.attribute.getClass().getName() != node.cut.getClass().getName()
(return == true)  ==>  (node.minus == null)
(return == false)  ==>  (this.tree.plus.attribute.getClass().getName() == node.plus.attribute.getClass().getName())
(node.cut != null)  ==>  (this.tree.attribute.getClass().getName() != node.plus.attribute.getClass().getName())
(return == true)  ==>  (node.attribute has only one value)
(return == false)  ==>  (this.tree.plus.cut.getClass().getName() != node.plus.attribute.getClass().getName())
(return == false)  ==>  (this.tree.minus.cut.getClass().getName() == node.plus.cut.getClass().getName())
this.tree.attribute.getClass().getName() == node.parent.attribute.getClass().getName()
(return == false)  ==>  (node.minus.attribute.getClass().getName() != node.attribute.getClass().getName())
(return == false)  ==>  (node.plus.attribute.getClass().getName() != node.minus.cut.getClass().getName())
(node.cut != null)  ==>  (node.cut.getClass().getName() != node.attribute.getClass().getName())
(return == false)  ==>  (this.barycenter.getClass().getName() != node.minus.cut.getClass().getName())
(return == false)  ==>  (node.plus.attribute.getClass().getName() != node.attribute.getClass().getName())
(return == false)  ==>  (this.barycenter.getClass().getName() != node.minus.attribute.getClass().getName())
this.barycenter.getClass().getName() != node.parent.attribute.getClass().getName()
(return == false)  ==>  (this.tree.minus.cut.getClass().getName() == node.minus.cut.getClass().getName())
(node.cut != null)  <==>  (this.tree.plus.attribute.getClass().getName() != node.attribute.getClass().getName())
(return == false)  ==>  (this.barycenter.getClass().getName() != node.cut.getClass().getName())
node.cut.getClass().getName() != node.attribute.getClass().getName()
(return == false)  ==>  (node.plus.cut.getClass().getName() == node.minus.cut.getClass().getName())
(node.cut == null)  ==>  (node.attribute != null)
(return == false)  ==>  (node.minus.attribute.getClass().getName() != node.parent.attribute.getClass().getName())
(node.cut != null)  ==>  (this.barycenter.getClass().getName() != node.minus.cut.getClass().getName())
(return == false)  ==>  (node.cut.getClass().getName() != node.minus.attribute.getClass().getName())
(return == false)  ==>  (node.minus.attribute.getClass().getName() != node.parent.cut.getClass().getName())
node.plus.attribute.getClass().getName() != node.parent.attribute.getClass().getName()
(return == false)  ==>  (node.cut.getClass().getName() == node.parent.cut.getClass().getName())
(return == false)  ==>  (this.tree.plus.cut.getClass().getName() == node.minus.cut.getClass().getName())
node.cut.getClass().getName() != node.parent.attribute.getClass().getName()
this.tree.attribute.getClass().getName() != node.plus.attribute.getClass().getName()
(node.cut != null)  <==>  (node.parent.attribute.getClass().getName() == node.attribute.getClass().getName())
(return == false)  ==>  (node.plus.parent == orig(node))
(node.cut == null)  <==>  (node.attribute.getClass().getName() == java.lang.Boolean.class)
(node.cut != null)  ==>  (node.minus.attribute.getClass().getName() != node.parent.attribute.getClass().getName())
(return == false)  ==>  (this.tree.minus.cut.getClass().getName() == node.cut.getClass().getName())
(return == false)  ==>  (node.plus.cut.getClass().getName() == node.parent.cut.getClass().getName())
(return == true)  ==>  (this.tree.plus.attribute.getClass().getName() == node.attribute.getClass().getName())
(node.cut != null)  <==>  (node.attribute.getClass().getName() == org.apache.commons.math3.geometry.partitioning.BoundaryAttribute.class)
this.tree.minus.cut.getClass().getName() != node.parent.attribute.getClass().getName()
(return == false)  ==>  (node.plus.attribute.getClass().getName() != orig(this.getClass().getName()))
(return == false)  ==>  (this.tree.plus.attribute.getClass().getName() != node.plus.cut.getClass().getName())
(return == false)  ==>  (node.plus.attribute.getClass().getName() == java.lang.Boolean.class)
(return == false)  ==>  (this.tree.plus.cut.getClass().getName() == node.plus.cut.getClass().getName())
this.tree.minus.attribute.getClass().getName() != node.minus.cut.getClass().getName()
(return == false)  ==>  (node.minus.cut.getClass().getName() == node.parent.cut.getClass().getName())
node.plus.attribute.getClass().getName() != node.attribute.getClass().getName()
(return == true)  ==>  (node.plus == node.minus)
(return == false)  ==>  (this.tree.cut.getClass().getName() != node.plus.attribute.getClass().getName())
(node.cut != null)  ==>  (node.plus.attribute.getClass().getName() != node.attribute.getClass().getName())
(return == false)  ==>  (this.tree.minus.attribute.getClass().getName() != node.minus.cut.getClass().getName())
(return == false)  ==>  (this.tree.attribute.getClass().getName() != node.minus.cut.getClass().getName())
(node.cut != null)  ==>  (node.plus.attribute.getClass().getName() != node.parent.attribute.getClass().getName())
(return == false)  ==>  (node.plus.parent != null)
===========================================================================
org.apache.commons.math3.geometry.partitioning.BSPTree.getMinus():::EXIT
this.cut.getClass().getName() != this.parent.parent.attribute.getClass().getName()
this.plus.minus.cut.getClass().getName() != this.parent.parent.attribute.getClass().getName()
this.plus.cut.getClass().getName() != this.parent.attribute.getClass().getName()
this.plus.minus.cut.getClass().getName() != this.parent.attribute.getClass().getName()
this.cut.getClass().getName() != this.parent.attribute.getClass().getName()
this.plus.cut.getClass().getName() != this.parent.parent.attribute.getClass().getName()
===========================================================================
org.apache.commons.math3.stat.descriptive.summary.Sum.evaluate(double[], double[], int, int):::EXIT
this.value != return
===========================================================================
org.apache.commons.math3.stat.descriptive.summary.Sum.copy(org.apache.commons.math3.stat.descriptive.summary.Sum, org.apache.commons.math3.stat.descriptive.summary.Sum):::EXIT
source.value one of { 0.0, 10.0, 166.9 }
source.n one of { 0, 4, 13 }
===========================================================================
org.apache.commons.math3.stat.descriptive.summary.Product.copy(org.apache.commons.math3.stat.descriptive.summary.Product, org.apache.commons.math3.stat.descriptive.summary.Product):::ENTER
source.value one of { 1.0, 9.3508056054E8 }
source.n one of { 0, 8 }
===========================================================================
org.apache.commons.math3.stat.descriptive.summary.Sum.copy():::ENTER
this.value one of { 0.0, 10.0, 166.9 }
this.n one of { 0, 4, 13 }
===========================================================================
org.apache.commons.math3.stat.descriptive.summary.SumOfSquares.copy(org.apache.commons.math3.stat.descriptive.summary.SumOfSquares, org.apache.commons.math3.stat.descriptive.summary.SumOfSquares):::EXIT
source.n one of { 0, 4, 18 }
source.value one of { 0.0, 30.0, 3185.52 }
===========================================================================
org.apache.commons.math3.geometry.partitioning.utilities.AVLTree.getNotSmaller(java.lang.Comparable):::ENTER
this.top.left.element.getClass().getName() == reference.getClass().getName()
org.apache.commons.math3.geometry.partitioning.utilities.AVLTree$Skew.$VALUES.getClass().getName() != reference.getClass().getName()
this.top.right.element.getClass().getName() == reference.getClass().getName()
===========================================================================
org.apache.commons.math3.genetics.AbstractListChromosome.toString():::EXIT
return.toString one of { "(f=0.0 [0, 0, 1])", "(f=0.0 [0, 1, 1])", "(f=0.0 [1, 1, 1])" }
===========================================================================
org.apache.commons.math3.stat.descriptive.summary.Product.copy():::ENTER
this.value one of { 1.0, 9.3508056054E8 }
this.n one of { 0, 8 }
===========================================================================
org.apache.commons.math3.geometry.partitioning.BSPTree.getPlus():::ENTER
this.cut.getClass().getName() != this.parent.parent.attribute.getClass().getName()
this.minus.plus.cut.getClass().getName() != this.parent.parent.attribute.getClass().getName()
this.plus.cut.getClass().getName() != this.parent.attribute.getClass().getName()
this.plus.minus.cut.getClass().getName() != this.parent.attribute.getClass().getName()
this.minus.minus.cut.getClass().getName() != this.parent.parent.attribute.getClass().getName()
this.minus.cut.getClass().getName() != this.parent.attribute.getClass().getName()
this.plus.minus.cut.getClass().getName() != this.parent.parent.attribute.getClass().getName()
this.minus.cut.getClass().getName() != this.parent.parent.attribute.getClass().getName()
this.minus.minus.cut.getClass().getName() != this.parent.attribute.getClass().getName()
this.cut.getClass().getName() != this.parent.attribute.getClass().getName()
this.minus.plus.cut.getClass().getName() != this.parent.attribute.getClass().getName()
this.plus.cut.getClass().getName() != this.parent.parent.attribute.getClass().getName()
===========================================================================
org.apache.commons.math3.geometry.partitioning.BSPTree.visit(org.apache.commons.math3.geometry.partitioning.BSPTreeVisitor):::ENTER
this.cut.getClass().getName() != this.parent.parent.attribute.getClass().getName()
this.plus.minus.cut.getClass().getName() != this.parent.parent.attribute.getClass().getName()
this.plus.cut.getClass().getName() != this.parent.attribute.getClass().getName()
this.plus.minus.cut.getClass().getName() != this.parent.attribute.getClass().getName()
this.minus.minus.cut.getClass().getName() != this.parent.parent.attribute.getClass().getName()
this.minus.cut.getClass().getName() != this.parent.attribute.getClass().getName()
this.minus.cut.getClass().getName() != this.parent.parent.attribute.getClass().getName()
this.minus.minus.cut.getClass().getName() != this.parent.attribute.getClass().getName()
this.minus.plus.cut.getClass().getName() != this.parent.parent.attribute.getClass().getName()
this.cut.getClass().getName() != this.parent.attribute.getClass().getName()
this.minus.plus.cut.getClass().getName() != this.parent.attribute.getClass().getName()
this.plus.cut.getClass().getName() != this.parent.parent.attribute.getClass().getName()
===========================================================================
org.apache.commons.math3.geometry.partitioning.BSPTree.split(org.apache.commons.math3.geometry.partitioning.SubHyperplane):::EXIT526
this.minus.plus.attribute.getClass().getName() == this.minus.minus.attribute.getClass().getName()
this.plus.plus.plus == return.attribute
this.attribute.getClass().getName() == orig(this.plus.parent.attribute.getClass().getName())
this.attribute.getClass().getName() == org.apache.commons.math3.geometry.partitioning.BoundaryAttribute.class
this.parent.minus.attribute.getClass().getName() == this.attribute.getClass().getName()
this.plus.plus.cut == return.attribute
this.minus.parent.attribute.getClass().getName() == this.attribute.getClass().getName()
this.attribute.getClass().getName() == orig(this.minus.parent.attribute.getClass().getName())
this.parent.minus.attribute.getClass().getName() == return.minus.attribute.getClass().getName()
this.plus.attribute.getClass().getName() == this.minus.minus.attribute.getClass().getName()
this.parent.minus.attribute.getClass().getName() == this.parent.parent.attribute.getClass().getName()
this.parent.parent.attribute.getClass().getName() == return.minus.attribute.getClass().getName()
this.minus.minus.attribute.getClass().getName() == java.lang.Boolean.class
this.parent.attribute.getClass().getName() == this.attribute.getClass().getName()
this.parent.parent.attribute.getClass().getName() == this.attribute.getClass().getName()
this.attribute.getClass().getName() == orig(this.parent.attribute.getClass().getName())
===========================================================================
org.apache.commons.math3.geometry.partitioning.BSPTree.split(org.apache.commons.math3.geometry.partitioning.SubHyperplane):::EXIT547
this.minus.attribute.getClass().getName() == this.parent.minus.attribute.getClass().getName()
this.minus.attribute.getClass().getName() == this.parent.plus.attribute.getClass().getName()
return.plus.attribute.getClass().getName() == return.minus.attribute.getClass().getName()
this.parent.attribute == null
this.plus.attribute.getClass().getName() == this.minus.minus.attribute.getClass().getName()
this.minus.minus.attribute.getClass().getName() == this.parent.minus.attribute.getClass().getName()
this.plus.attribute.getClass().getName() == this.parent.minus.attribute.getClass().getName()
this.minus.minus.attribute.getClass().getName() == return.minus.attribute.getClass().getName()
this.parent.minus.attribute.getClass().getName() == return.plus.attribute.getClass().getName()
this.minus.attribute.getClass().getName() == java.lang.Boolean.class
this.minus.plus.attribute.getClass().getName() == return.minus.attribute.getClass().getName()
this.parent.parent.attribute == this.parent.attribute
this.parent.plus.attribute.getClass().getName() == return.minus.attribute.getClass().getName()
this.minus.plus.attribute.getClass().getName() == this.minus.minus.attribute.getClass().getName()
return.plus.attribute.getClass().getName() == java.lang.Boolean.class
this.parent.attribute == return.parent
this.parent.minus.attribute.getClass().getName() == java.lang.Boolean.class
this.parent.parent.attribute == return.parent
this.plus.attribute.getClass().getName() == return.plus.attribute.getClass().getName()
this.minus.plus.attribute.getClass().getName() == this.parent.minus.attribute.getClass().getName()
this.parent.parent.attribute == null
return.minus.attribute.getClass().getName() == java.lang.Boolean.class
this.minus.attribute.getClass().getName() == return.minus.attribute.getClass().getName()
this.minus.minus.attribute.getClass().getName() == java.lang.Boolean.class
this.minus.plus.attribute.getClass().getName() == return.plus.attribute.getClass().getName()
this.parent.plus.attribute.getClass().getName() == return.plus.attribute.getClass().getName()
this.plus.attribute.getClass().getName() == return.minus.attribute.getClass().getName()
this.minus.minus.attribute.getClass().getName() == return.plus.attribute.getClass().getName()
this.plus.attribute.getClass().getName() == this.minus.attribute.getClass().getName()
this.parent.minus.attribute.getClass().getName() == return.minus.attribute.getClass().getName()
===========================================================================
org.apache.commons.math3.geometry.partitioning.BSPTree.copySelf():::ENTER
this.parent.parent.attribute.getClass().getName() != this.attribute.getClass().getName()
this.parent.plus.attribute.getClass().getName() != this.parent.attribute.getClass().getName()
this.parent.plus.attribute.getClass().getName() != this.parent.parent.attribute.getClass().getName()
this.parent.attribute.getClass().getName() != this.attribute.getClass().getName()
===========================================================================
org.apache.commons.math3.geometry.partitioning.utilities.AVLTree.getNotSmaller(java.lang.Comparable):::EXIT156
orig(this.top.element.getClass().getName()) == orig(reference.getClass().getName())
this.top != null
this.top == orig(org.apache.commons.math3.geometry.partitioning.utilities.AVLTree.this.top)
===========================================================================
org.apache.commons.math3.geometry.partitioning.BSPTree.split(org.apache.commons.math3.geometry.partitioning.SubHyperplane):::EXIT544
this.minus.minus.attribute.getClass().getName() == return.plus.attribute.getClass().getName()
this.parent.plus.attribute.getClass().getName() == return.minus.attribute.getClass().getName()
this.attribute.getClass().getName() == orig(this.plus.parent.attribute.getClass().getName())
return.minus.attribute.getClass().getName() == java.lang.Boolean.class
this.attribute.getClass().getName() == org.apache.commons.math3.geometry.partitioning.BoundaryAttribute.class
this.minus.minus.attribute.getClass().getName() == return.minus.attribute.getClass().getName()
this.parent.minus.attribute.getClass().getName() == this.attribute.getClass().getName()
return.plus.attribute.getClass().getName() == java.lang.Boolean.class
this.attribute.getClass().getName() == orig(this.minus.parent.attribute.getClass().getName())
this.minus.parent.attribute.getClass().getName() == this.attribute.getClass().getName()
this.minus.plus.attribute.getClass().getName() == return.minus.attribute.getClass().getName()
this.minus.plus.attribute.getClass().getName() == return.plus.attribute.getClass().getName()
this.parent.minus.attribute.getClass().getName() == return.minus.attribute.getClass().getName()
this.plus.attribute.getClass().getName() == return.plus.attribute.getClass().getName()
this.parent.minus.attribute.getClass().getName() == this.parent.parent.attribute.getClass().getName()
this.plus.attribute.getClass().getName() == return.minus.attribute.getClass().getName()
this.parent.attribute.getClass().getName() == this.attribute.getClass().getName()
this.parent.parent.attribute.getClass().getName() == this.attribute.getClass().getName()
this.parent.minus.attribute.getClass().getName() == this.parent.attribute.getClass().getName()
this.parent.plus.attribute.getClass().getName() == return.plus.attribute.getClass().getName()
===========================================================================
org.apache.commons.math3.geometry.partitioning.AbstractRegion.setBarycenter(org.apache.commons.math3.geometry.Vector):::ENTER
this.tree.plus.cut.getClass().getName() != barycenter.getClass().getName()
===========================================================================
org.apache.commons.math3.geometry.partitioning.BSPTree.condense():::ENTER
this.attribute.getClass().getName() == org.apache.commons.math3.geometry.partitioning.BoundaryAttribute.class
this.plus.parent.attribute.getClass().getName() == this.attribute.getClass().getName()
this.minus.parent.attribute.getClass().getName() == this.attribute.getClass().getName()
===========================================================================
org.apache.commons.math3.geometry.partitioning.BSPTree.BSPTree(org.apache.commons.math3.geometry.partitioning.SubHyperplane, org.apache.commons.math3.geometry.partitioning.BSPTree, org.apache.commons.math3.geometry.partitioning.BSPTree, java.lang.Object):::EXIT
plus.minus.cut.getClass().getName() != minus.plus.attribute.getClass().getName()
plus.minus.cut.getClass().getName() != minus.minus.attribute.getClass().getName()
===========================================================================
org.apache.commons.math3.stat.descriptive.rank.Min.copy():::ENTER
this.n one of { 0, 4, 17 }
===========================================================================
org.apache.commons.math3.stat.descriptive.summary.SumOfSquares.copy():::EXIT
this.value one of { 0.0, 30.0, 3185.52 }
this.n one of { 0, 4, 18 }
===========================================================================
org.apache.commons.math3.geometry.partitioning.AbstractRegion.isEmpty(org.apache.commons.math3.geometry.partitioning.BSPTree):::EXIT237
node.attribute.getClass().getName() == java.lang.Boolean.class
this.tree.plus.attribute.getClass().getName() == node.attribute.getClass().getName()
node.parent.attribute.getClass().getName() != node.attribute.getClass().getName()
===========================================================================
org.apache.commons.math3.stat.descriptive.rank.Max.copy(org.apache.commons.math3.stat.descriptive.rank.Max, org.apache.commons.math3.stat.descriptive.rank.Max):::ENTER
source.n one of { 0, 4, 17 }
source.value one of { 4.0, 21.0, Double.NaN }
===========================================================================
org.apache.commons.math3.geometry.partitioning.BSPTree.getCell(org.apache.commons.math3.geometry.Vector):::EXIT
this.cut.getClass().getName() != this.parent.parent.attribute.getClass().getName()
this.plus.cut.getClass().getName() != this.parent.parent.attribute.getClass().getName()
this.plus.cut.getClass().getName() != this.parent.attribute.getClass().getName()
this.plus.minus.cut.getClass().getName() != this.parent.attribute.getClass().getName()
this.minus.minus.cut.getClass().getName() != this.parent.parent.attribute.getClass().getName()
this.minus.cut.getClass().getName() != this.parent.attribute.getClass().getName()
this.plus.minus.cut.getClass().getName() != this.parent.parent.attribute.getClass().getName()
this.minus.cut.getClass().getName() != this.parent.parent.attribute.getClass().getName()
this.minus.minus.cut.getClass().getName() != this.parent.attribute.getClass().getName()
this.cut.getClass().getName() != this.parent.attribute.getClass().getName()
this.minus.plus.cut.getClass().getName() != this.parent.attribute.getClass().getName()
this.minus.plus.cut.getClass().getName() != this.parent.parent.attribute.getClass().getName()
===========================================================================
org.apache.commons.math3.geometry.partitioning.BSPTree.split(org.apache.commons.math3.geometry.partitioning.SubHyperplane):::EXIT
this.plus.parent.attribute.getClass().getName() != return.minus.cut.getClass().getName()
this.parent.parent.attribute.getClass().getName() != return.plus.attribute.getClass().getName()
this.plus.parent.attribute.getClass().getName() == orig(this.minus.parent.attribute.getClass().getName())
this.cut.getClass().getName() != this.attribute.getClass().getName()
this.plus.attribute.getClass().getName() != this.attribute.getClass().getName()
this.plus.parent.attribute.getClass().getName() == this.attribute.getClass().getName()
this.plus.parent.attribute.getClass().getName() != this.plus.attribute.getClass().getName()
this.plus.parent.attribute.getClass().getName() == return.minus.attribute.getClass().getName()
this.parent.plus.attribute.getClass().getName() != this.parent.attribute.getClass().getName()
this.plus.parent.attribute.getClass().getName() == orig(this.plus.parent.attribute.getClass().getName())
this.attribute.getClass().getName() != return.minus.cut.getClass().getName()
this.attribute.getClass().getName() != return.plus.cut.getClass().getName()
this.parent.attribute.getClass().getName() == orig(this.parent.attribute.getClass().getName())
this.parent.parent.attribute.getClass().getName() != return.cut.getClass().getName()
this.plus.parent.attribute.getClass().getName() == org.apache.commons.math3.geometry.partitioning.BoundaryAttribute.class
this.plus.parent.attribute.getClass().getName() == this.parent.minus.attribute.getClass().getName()
this.plus.parent.attribute.getClass().getName() != return.cut.getClass().getName()
this.plus.parent.attribute.getClass().getName() != return.plus.cut.getClass().getName()
this.parent.parent.attribute.getClass().getName() == orig(this.parent.parent.attribute.getClass().getName())
this.parent.plus.attribute.getClass().getName() != this.parent.parent.attribute.getClass().getName()
this.parent.attribute.getClass().getName() != return.cut.getClass().getName()
===========================================================================
org.apache.commons.math3.geometry.partitioning.AbstractRegion.recurseSides(org.apache.commons.math3.geometry.partitioning.BSPTree, org.apache.commons.math3.geometry.partitioning.SubHyperplane, org.apache.commons.math3.geometry.partitioning.AbstractRegion$Sides):::EXIT444
node.attribute.getClass().getName() == java.lang.Boolean.class
this.tree.plus.attribute.getClass().getName() == node.attribute.getClass().getName()
node.parent.attribute.getClass().getName() != node.attribute.getClass().getName()
===========================================================================
org.apache.commons.math3.geometry.partitioning.BSPTree.copySelf():::EXIT
(this.cut != null)  ==>  (this.parent.parent.attribute == null)
(this.cut == null)  ==>  (this.parent.cut.getClass().getName() != this.parent.attribute.getClass().getName())
this.parent.parent.attribute.getClass().getName() != this.attribute.getClass().getName()
(this.cut != null)  ==>  (this.parent.parent.attribute == this.parent.attribute)
(this.cut == null)  ==>  (this.parent.attribute.getClass().getName() != this.attribute.getClass().getName())
(this.cut != null)  ==>  (this.parent.parent.attribute == return.parent)
this.parent.parent.attribute.getClass().getName() == orig(this.parent.parent.attribute.getClass().getName())
(this.cut != null)  ==>  (this.parent.attribute == return.parent)
this.parent.plus.attribute.getClass().getName() != this.parent.parent.attribute.getClass().getName()
(this.cut == null)  ==>  (this.parent.plus.attribute.getClass().getName() != this.parent.attribute.getClass().getName())
this.parent.attribute.getClass().getName() != this.attribute.getClass().getName()
(this.cut == null)  ==>  (this.parent.attribute.getClass().getName() == org.apache.commons.math3.geometry.partitioning.BoundaryAttribute.class)
(this.cut == null)  ==>  (this.parent.plus.attribute.getClass().getName() != this.parent.parent.attribute.getClass().getName())
this.parent.plus.attribute.getClass().getName() != this.parent.attribute.getClass().getName()
(this.cut == null)  ==>  (this.parent.parent.cut.getClass().getName() != this.parent.parent.attribute.getClass().getName())
(this.cut == null)  ==>  (this.parent.parent.attribute.getClass().getName() == org.apache.commons.math3.geometry.partitioning.BoundaryAttribute.class)
(this.cut != null)  ==>  (this.parent.minus.attribute.getClass().getName() == java.lang.Boolean.class)
this.parent.attribute.getClass().getName() == orig(this.parent.attribute.getClass().getName())
(this.cut != null)  ==>  (this.parent.attribute == null)
(this.cut == null)  ==>  (this.parent.parent.attribute.getClass().getName() != this.attribute.getClass().getName())
(this.cut == null)  ==>  (this.parent.parent.cut.getClass().getName() != this.parent.attribute.getClass().getName())
(this.cut == null)  ==>  (this.parent.cut.getClass().getName() != this.parent.parent.attribute.getClass().getName())
(this.cut == null)  ==>  (this.parent.parent.attribute.getClass().getName() == this.parent.attribute.getClass().getName())
===========================================================================
org.apache.commons.math3.geometry.partitioning.BSPTree.getCut():::EXIT
this.plus.cut.getClass().getName() != this.parent.parent.attribute.getClass().getName()
this.plus.minus.cut.getClass().getName() != this.parent.parent.attribute.getClass().getName()
this.plus.cut.getClass().getName() != this.parent.attribute.getClass().getName()
this.plus.minus.cut.getClass().getName() != this.parent.attribute.getClass().getName()
this.minus.minus.cut.getClass().getName() != this.parent.parent.attribute.getClass().getName()
this.minus.cut.getClass().getName() != this.parent.attribute.getClass().getName()
this.minus.cut.getClass().getName() != this.parent.parent.attribute.getClass().getName()
this.minus.minus.cut.getClass().getName() != this.parent.attribute.getClass().getName()
this.minus.plus.cut.getClass().getName() != this.parent.attribute.getClass().getName()
this.minus.plus.cut.getClass().getName() != this.parent.parent.attribute.getClass().getName()
===========================================================================
org.apache.commons.math3.geometry.partitioning.BSPTree.getCut():::ENTER
this.cut.getClass().getName() != this.parent.parent.attribute.getClass().getName()
this.plus.minus.cut.getClass().getName() != this.parent.parent.attribute.getClass().getName()
this.plus.cut.getClass().getName() != this.parent.attribute.getClass().getName()
this.plus.minus.cut.getClass().getName() != this.parent.attribute.getClass().getName()
this.minus.minus.cut.getClass().getName() != this.parent.parent.attribute.getClass().getName()
this.minus.cut.getClass().getName() != this.parent.attribute.getClass().getName()
this.minus.cut.getClass().getName() != this.parent.parent.attribute.getClass().getName()
this.minus.minus.cut.getClass().getName() != this.parent.attribute.getClass().getName()
this.minus.plus.cut.getClass().getName() != this.parent.parent.attribute.getClass().getName()
this.cut.getClass().getName() != this.parent.attribute.getClass().getName()
this.minus.plus.cut.getClass().getName() != this.parent.attribute.getClass().getName()
this.plus.cut.getClass().getName() != this.parent.parent.attribute.getClass().getName()
===========================================================================
org.apache.commons.math3.geometry.partitioning.AbstractRegion.getBarycenter():::EXIT
this.tree.plus.cut.getClass().getName() != orig(this.tree.attribute.getClass().getName())
this.tree.plus.cut.getClass().getName() != return.getClass().getName()
this.tree.plus.cut.getClass().getName() != orig(this.barycenter.getClass().getName())
this.tree.plus.cut.getClass().getName() != orig(this.getClass().getName())
===========================================================================
org.apache.commons.math3.geometry.partitioning.BSPTree.merge(org.apache.commons.math3.geometry.partitioning.BSPTree, org.apache.commons.math3.geometry.partitioning.BSPTree$LeafMerger):::EXIT
this.minus.parent.attribute.getClass().getName() != tree.minus.cut.getClass().getName()
===========================================================================
org.apache.commons.math3.geometry.partitioning.BSPTree.getAttribute():::ENTER
this.cut.getClass().getName() != this.parent.parent.attribute.getClass().getName()
this.plus.minus.cut.getClass().getName() != this.parent.parent.attribute.getClass().getName()
this.plus.cut.getClass().getName() != this.parent.attribute.getClass().getName()
this.plus.minus.cut.getClass().getName() != this.parent.attribute.getClass().getName()
this.minus.minus.cut.getClass().getName() != this.parent.parent.attribute.getClass().getName()
this.minus.cut.getClass().getName() != this.parent.attribute.getClass().getName()
this.minus.cut.getClass().getName() != this.parent.parent.attribute.getClass().getName()
this.minus.minus.cut.getClass().getName() != this.parent.attribute.getClass().getName()
this.minus.plus.cut.getClass().getName() != this.parent.parent.attribute.getClass().getName()
this.cut.getClass().getName() != this.parent.attribute.getClass().getName()
this.minus.plus.cut.getClass().getName() != this.parent.attribute.getClass().getName()
this.plus.cut.getClass().getName() != this.parent.parent.attribute.getClass().getName()
===========================================================================
org.apache.commons.math3.stat.descriptive.summary.Product.copy(org.apache.commons.math3.stat.descriptive.summary.Product, org.apache.commons.math3.stat.descriptive.summary.Product):::EXIT
source.value one of { 1.0, 9.3508056054E8 }
source.n one of { 0, 8 }
===========================================================================
org.apache.commons.math3.geometry.partitioning.BSPTree.condense():::EXIT
this.plus.parent.attribute.getClass().getName() == orig(this.attribute.getClass().getName())
this.minus.parent.attribute.getClass().getName() == orig(this.attribute.getClass().getName())
this.attribute.getClass().getName() == orig(this.attribute.getClass().getName())
===========================================================================
org.apache.commons.math3.geometry.partitioning.AbstractRegion.insertCuts(org.apache.commons.math3.geometry.partitioning.BSPTree, java.util.Collection):::EXIT187
node.cut.getClass().getName() == org.apache.commons.math3.geometry.euclidean.twod.SubLine.class
===========================================================================
org.apache.commons.math3.stat.descriptive.summary.Product.evaluate(double[], double[], int, int):::EXIT
this.value != return
===========================================================================
org.apache.commons.math3.stat.descriptive.summary.Sum.copy(org.apache.commons.math3.stat.descriptive.summary.Sum, org.apache.commons.math3.stat.descriptive.summary.Sum):::ENTER
source.value one of { 0.0, 10.0, 166.9 }
source.n one of { 0, 4, 13 }
===========================================================================
org.apache.commons.math3.stat.descriptive.summary.Sum.copy():::EXIT
this.value one of { 0.0, 10.0, 166.9 }
this.n one of { 0, 4, 13 }
===========================================================================
org.apache.commons.math3.stat.descriptive.summary.SumOfSquares.copy(org.apache.commons.math3.stat.descriptive.summary.SumOfSquares, org.apache.commons.math3.stat.descriptive.summary.SumOfSquares):::ENTER
source.n one of { 0, 4, 18 }
source.value one of { 0.0, 30.0, 3185.52 }
===========================================================================
org.apache.commons.math3.stat.descriptive.summary.Product.copy():::EXIT
this.value one of { 1.0, 9.3508056054E8 }
this.n one of { 0, 8 }
===========================================================================
org.apache.commons.math3.geometry.partitioning.BSPTree.getMinus():::ENTER
this.cut.getClass().getName() != this.parent.parent.attribute.getClass().getName()
this.plus.minus.cut.getClass().getName() != this.parent.parent.attribute.getClass().getName()
this.plus.cut.getClass().getName() != this.parent.attribute.getClass().getName()
this.plus.minus.cut.getClass().getName() != this.parent.attribute.getClass().getName()
this.minus.minus.cut.getClass().getName() != this.parent.parent.attribute.getClass().getName()
this.minus.cut.getClass().getName() != this.parent.attribute.getClass().getName()
this.minus.cut.getClass().getName() != this.parent.parent.attribute.getClass().getName()
this.minus.minus.cut.getClass().getName() != this.parent.attribute.getClass().getName()
this.minus.plus.cut.getClass().getName() != this.parent.parent.attribute.getClass().getName()
this.cut.getClass().getName() != this.parent.attribute.getClass().getName()
this.minus.plus.cut.getClass().getName() != this.parent.attribute.getClass().getName()
this.plus.cut.getClass().getName() != this.parent.parent.attribute.getClass().getName()
===========================================================================
org.apache.commons.math3.stat.descriptive.rank.Max.copy(org.apache.commons.math3.stat.descriptive.rank.Max, org.apache.commons.math3.stat.descriptive.rank.Max):::EXIT
dest.value one of { 4.0, 21.0, Double.NaN }
source.n one of { 0, 4, 17 }
source.value one of { 4.0, 21.0, Double.NaN }
===========================================================================
org.apache.commons.math3.geometry.partitioning.AbstractRegion.isEmpty(org.apache.commons.math3.geometry.partitioning.BSPTree):::ENTER
this.tree.minus.attribute.getClass().getName() == this.tree.attribute.getClass().getName()
this.barycenter.getClass().getName() != node.minus.cut.getClass().getName()
this.tree.cut.getClass().getName() != node.parent.attribute.getClass().getName()
node.plus.attribute.getClass().getName() != node.parent.attribute.getClass().getName()
this.tree.attribute.getClass().getName() != node.minus.cut.getClass().getName()
node.minus.attribute.getClass().getName() != node.parent.attribute.getClass().getName()
this.tree.attribute.getClass().getName() != node.cut.getClass().getName()
node.cut.getClass().getName() != node.parent.attribute.getClass().getName()
this.tree.minus.attribute.getClass().getName() == node.parent.attribute.getClass().getName()
this.tree.minus.attribute.getClass().getName() != node.minus.cut.getClass().getName()
this.tree.attribute.getClass().getName() != node.plus.attribute.getClass().getName()
this.tree.attribute.getClass().getName() == node.parent.attribute.getClass().getName()
this.tree.plus.attribute.getClass().getName() != node.parent.attribute.getClass().getName()
node.parent.cut.getClass().getName() != node.parent.attribute.getClass().getName()
this.tree.minus.cut.getClass().getName() != node.parent.attribute.getClass().getName()
this.barycenter.getClass().getName() != node.parent.attribute.getClass().getName()
this.tree.plus.attribute.getClass().getName() != this.tree.attribute.getClass().getName()
node.plus.attribute.getClass().getName() != node.attribute.getClass().getName()
this.getClass().getName() != node.parent.attribute.getClass().getName()
node.parent.attribute.getClass().getName() == org.apache.commons.math3.geometry.partitioning.BoundaryAttribute.class
node.cut.getClass().getName() != node.attribute.getClass().getName()
node.minus.attribute.getClass().getName() != node.attribute.getClass().getName()
===========================================================================
org.apache.commons.math3.geometry.partitioning.AbstractRegion.getSize():::EXIT
this.tree.plus.cut.getClass().getName() != orig(this.tree.plus.attribute.getClass().getName())
this.tree.plus.cut.getClass().getName() != orig(this.tree.minus.attribute.getClass().getName())
this.tree.plus.cut.getClass().getName() != orig(this.getClass().getName())
this.tree.plus.cut.getClass().getName() != orig(this.barycenter.getClass().getName())
this.tree.plus.cut.getClass().getName() != orig(this.tree.attribute.getClass().getName())
===========================================================================
org.apache.commons.math3.genetics.ListPopulation.toString():::EXIT
return.toString == "[(f=0.0 [1, 1, 1]), (f=0.0 [0, 1, 1]), (f=0.0 [0, 0, 1])]"
===========================================================================
org.apache.commons.math3.geometry.partitioning.AbstractRegion.isEmpty(org.apache.commons.math3.geometry.partitioning.BSPTree):::EXIT241
this.tree.attribute.getClass().getName() == org.apache.commons.math3.geometry.partitioning.BoundaryAttribute.class
this.tree.minus.attribute.getClass().getName() == node.attribute.getClass().getName()
node.attribute.getClass().getName() == org.apache.commons.math3.geometry.partitioning.BoundaryAttribute.class
this.tree.plus.attribute.getClass().getName() != node.attribute.getClass().getName()
node.parent.attribute.getClass().getName() == node.attribute.getClass().getName()
this.tree.attribute.getClass().getName() == node.attribute.getClass().getName()
===========================================================================
org.apache.commons.math3.geometry.partitioning.utilities.AVLTree.isEmpty():::EXIT
(this.top != null)  ==>  (this.top.right.element.getClass().getName() == org.apache.commons.math3.geometry.euclidean.twod.PolygonsSet$ComparableSegment.class)
(this.top != null)  ==>  (this.top.right.parent != null)
this.top.right.element.getClass().getName() == orig(this.top.right.element.getClass().getName())
this.top.right.parent == orig(this.top.right.parent)
(this.top != null)  ==>  (this.top.right.element.getClass().getName() != org.apache.commons.math3.geometry.partitioning.utilities.AVLTree$Skew.$VALUES.getClass().getName())
this.top.right.element.getClass().getName() == org.apache.commons.math3.geometry.euclidean.twod.PolygonsSet$ComparableSegment.class
(this.top != null)  ==>  (this.top == this.top.right.parent)
(this.top != null)  ==>  (this.top.element.getClass().getName() == this.top.right.element.getClass().getName())
(this.top != null)  ==>  (this.top.right.parent == org.apache.commons.math3.geometry.partitioning.utilities.AVLTree.this.top)
(this.top != null)  ==>  (this.top.left.parent == this.top.right.parent)
(this.top != null)  ==>  (this.top.left.element.getClass().getName() == this.top.right.element.getClass().getName())
===========================================================================
org.apache.commons.math3.geometry.partitioning.BSPTree.BSPTree(org.apache.commons.math3.geometry.partitioning.SubHyperplane, org.apache.commons.math3.geometry.partitioning.BSPTree, org.apache.commons.math3.geometry.partitioning.BSPTree, java.lang.Object):::ENTER
plus.minus.cut.getClass().getName() != minus.plus.attribute.getClass().getName()
plus.minus.cut.getClass().getName() != minus.minus.attribute.getClass().getName()
===========================================================================
org.apache.commons.math3.stat.descriptive.rank.Min.copy(org.apache.commons.math3.stat.descriptive.rank.Min, org.apache.commons.math3.stat.descriptive.rank.Min):::EXIT
source.n one of { 0, 4, 17 }
===========================================================================
org.apache.commons.math3.optimization.linear.Relationship.oppositeRelationship():::EXIT
org.apache.commons.math3.optimization.linear.Relationship.GEQ.stringValue.toString >= return.stringValue.toString
org.apache.commons.math3.optimization.linear.Relationship.LEQ.stringValue.toString <= return.stringValue.toString
===========================================================================
org.apache.commons.math3.geometry.partitioning.BSPTree.setAttribute(java.lang.Object):::EXIT
this.cut.getClass().getName() != this.parent.parent.attribute.getClass().getName()
this.plus.cut.getClass().getName() != this.parent.parent.attribute.getClass().getName()
this.plus.cut.getClass().getName() != this.parent.attribute.getClass().getName()
this.plus.minus.cut.getClass().getName() != this.parent.attribute.getClass().getName()
this.minus.minus.cut.getClass().getName() != this.parent.parent.attribute.getClass().getName()
this.minus.cut.getClass().getName() != this.parent.attribute.getClass().getName()
this.plus.minus.cut.getClass().getName() != this.parent.parent.attribute.getClass().getName()
this.minus.cut.getClass().getName() != this.parent.parent.attribute.getClass().getName()
this.minus.minus.cut.getClass().getName() != this.parent.attribute.getClass().getName()
this.cut.getClass().getName() != this.parent.attribute.getClass().getName()
this.minus.plus.cut.getClass().getName() != this.parent.attribute.getClass().getName()
this.minus.plus.cut.getClass().getName() != this.parent.parent.attribute.getClass().getName()
===========================================================================
org.apache.commons.math3.geometry.partitioning.BSPTree.split(org.apache.commons.math3.geometry.partitioning.SubHyperplane):::ENTER
this.parent.attribute.getClass().getName() != sub.getClass().getName()
this.cut.getClass().getName() != this.attribute.getClass().getName()
this.plus.parent.attribute.getClass().getName() != sub.getClass().getName()
this.plus.parent.attribute.getClass().getName() == this.attribute.getClass().getName()
this.plus.parent.attribute.getClass().getName() != this.plus.attribute.getClass().getName()
this.parent.plus.attribute.getClass().getName() != this.parent.attribute.getClass().getName()
this.plus.attribute.getClass().getName() != this.attribute.getClass().getName()
this.plus.parent.attribute.getClass().getName() == org.apache.commons.math3.geometry.partitioning.BoundaryAttribute.class
this.plus.parent.attribute.getClass().getName() == this.parent.minus.attribute.getClass().getName()
this.parent.plus.attribute.getClass().getName() != this.parent.parent.attribute.getClass().getName()
this.parent.parent.attribute.getClass().getName() != sub.getClass().getName()
===========================================================================
org.apache.commons.math3.geometry.partitioning.BSPTree.setAttribute(java.lang.Object):::ENTER
this.cut.getClass().getName() != this.parent.parent.attribute.getClass().getName()
this.plus.cut.getClass().getName() != this.parent.parent.attribute.getClass().getName()
this.plus.minus.cut.getClass().getName() != this.parent.parent.attribute.getClass().getName()
this.plus.cut.getClass().getName() != this.parent.attribute.getClass().getName()
this.plus.minus.cut.getClass().getName() != this.parent.attribute.getClass().getName()
this.minus.minus.cut.getClass().getName() != this.parent.parent.attribute.getClass().getName()
this.minus.cut.getClass().getName() != this.parent.attribute.getClass().getName()
this.minus.cut.getClass().getName() != this.parent.parent.attribute.getClass().getName()
this.minus.minus.cut.getClass().getName() != this.parent.attribute.getClass().getName()
this.cut.getClass().getName() != this.parent.attribute.getClass().getName()
this.minus.plus.cut.getClass().getName() != this.parent.attribute.getClass().getName()
this.minus.plus.cut.getClass().getName() != this.parent.parent.attribute.getClass().getName()
===========================================================================
org.apache.commons.math3.geometry.partitioning.BSPTree.visit(org.apache.commons.math3.geometry.partitioning.BSPTreeVisitor):::EXIT
this.cut.getClass().getName() != this.parent.parent.attribute.getClass().getName()
this.plus.cut.getClass().getName() != this.parent.parent.attribute.getClass().getName()
this.plus.minus.cut.getClass().getName() != this.parent.parent.attribute.getClass().getName()
this.plus.cut.getClass().getName() != this.parent.attribute.getClass().getName()
this.plus.minus.cut.getClass().getName() != this.parent.attribute.getClass().getName()
this.minus.minus.cut.getClass().getName() != this.parent.parent.attribute.getClass().getName()
this.minus.cut.getClass().getName() != this.parent.attribute.getClass().getName()
this.minus.cut.getClass().getName() != this.parent.parent.attribute.getClass().getName()
this.minus.minus.cut.getClass().getName() != this.parent.attribute.getClass().getName()
this.cut.getClass().getName() != this.parent.attribute.getClass().getName()
this.minus.plus.cut.getClass().getName() != this.parent.attribute.getClass().getName()
this.minus.plus.cut.getClass().getName() != this.parent.parent.attribute.getClass().getName()
===========================================================================
org.apache.commons.math3.geometry.partitioning.BSPTree.getPlus():::EXIT
this.cut.getClass().getName() != this.parent.parent.attribute.getClass().getName()
this.minus.plus.cut.getClass().getName() != this.parent.parent.attribute.getClass().getName()
this.minus.plus.cut.getClass().getName() != this.parent.attribute.getClass().getName()
this.minus.minus.cut.getClass().getName() != this.parent.parent.attribute.getClass().getName()
this.minus.cut.getClass().getName() != this.parent.attribute.getClass().getName()
this.minus.cut.getClass().getName() != this.parent.parent.attribute.getClass().getName()
this.minus.minus.cut.getClass().getName() != this.parent.attribute.getClass().getName()
this.cut.getClass().getName() != this.parent.attribute.getClass().getName()
===========================================================================
org.apache.commons.math3.geometry.partitioning.utilities.AVLTree.getNotSmaller(java.lang.Comparable):::EXIT162
this.top != null
this.top == orig(org.apache.commons.math3.geometry.partitioning.utilities.AVLTree.this.top)
===========================================================================
org.apache.commons.math3.geometry.partitioning.AbstractRegion.recurseSides(org.apache.commons.math3.geometry.partitioning.BSPTree, org.apache.commons.math3.geometry.partitioning.SubHyperplane, org.apache.commons.math3.geometry.partitioning.AbstractRegion$Sides):::ENTER
this.tree.minus.attribute.getClass().getName() == this.tree.attribute.getClass().getName()
node.parent.attribute.getClass().getName() != sub.getClass().getName()
node.plus.attribute.getClass().getName() != node.parent.attribute.getClass().getName()
this.tree.attribute.getClass().getName() != node.minus.cut.getClass().getName()
node.minus.cut.getClass().getName() != node.minus.attribute.getClass().getName()
this.tree.attribute.getClass().getName() != node.cut.getClass().getName()
node.cut.getClass().getName() != node.parent.attribute.getClass().getName()
this.tree.minus.attribute.getClass().getName() == node.parent.attribute.getClass().getName()
node.minus.cut.getClass().getName() != node.parent.attribute.getClass().getName()
this.tree.attribute.getClass().getName() != node.plus.attribute.getClass().getName()
this.tree.attribute.getClass().getName() == node.parent.attribute.getClass().getName()
this.tree.plus.attribute.getClass().getName() != node.parent.attribute.getClass().getName()
this.tree.attribute.getClass().getName() != node.parent.cut.getClass().getName()
this.tree.cut.getClass().getName() != node.parent.attribute.getClass().getName()
node.parent.cut.getClass().getName() != node.parent.attribute.getClass().getName()
this.tree.minus.cut.getClass().getName() != node.parent.attribute.getClass().getName()
node.minus.cut.getClass().getName() != node.attribute.getClass().getName()
this.barycenter.getClass().getName() != node.parent.attribute.getClass().getName()
this.getClass().getName() != node.parent.attribute.getClass().getName()
node.plus.attribute.getClass().getName() != node.attribute.getClass().getName()
this.tree.plus.attribute.getClass().getName() != this.tree.attribute.getClass().getName()
node.parent.attribute.getClass().getName() == org.apache.commons.math3.geometry.partitioning.BoundaryAttribute.class
this.tree.minus.attribute.getClass().getName() != node.minus.cut.getClass().getName()
node.cut.getClass().getName() != node.attribute.getClass().getName()
===========================================================================
org.apache.commons.math3.geometry.partitioning.AbstractRegion.isEmpty(org.apache.commons.math3.geometry.partitioning.BSPTree):::EXIT;condition="return == true"
node.attribute.getClass().getName() == java.lang.Boolean.class
this.tree.plus.attribute.getClass().getName() == node.attribute.getClass().getName()
node.parent.attribute.getClass().getName() != node.attribute.getClass().getName()
===========================================================================
org.apache.commons.math3.stat.descriptive.rank.Max.copy():::ENTER
this.n one of { 0, 4, 17 }
this.value one of { 4.0, 21.0, Double.NaN }
===========================================================================
org.apache.commons.math3.geometry.partitioning.BSPTree.split(org.apache.commons.math3.geometry.partitioning.SubHyperplane):::EXIT489
this.parent.plus.attribute.getClass().getName() == this.attribute.getClass().getName()
this.attribute.getClass().getName() == java.lang.Boolean.class
this.parent.attribute.getClass().getName() != this.attribute.getClass().getName()
this.attribute.getClass().getName() == return.plus.attribute.getClass().getName()
===========================================================================
org.apache.commons.math3.geometry.partitioning.BoundarySizeVisitor:::OBJECT
this.boundarySize >= 0.0
===========================================================================
org.apache.commons.math3.geometry.partitioning.BSPTree.getAttribute():::EXIT
this.cut.getClass().getName() != this.parent.parent.attribute.getClass().getName()
this.minus.plus.cut.getClass().getName() != this.parent.parent.attribute.getClass().getName()
this.plus.cut.getClass().getName() != this.parent.attribute.getClass().getName()
this.plus.minus.cut.getClass().getName() != this.parent.attribute.getClass().getName()
this.minus.minus.cut.getClass().getName() != this.parent.parent.attribute.getClass().getName()
this.minus.cut.getClass().getName() != this.parent.attribute.getClass().getName()
this.plus.minus.cut.getClass().getName() != this.parent.parent.attribute.getClass().getName()
this.minus.cut.getClass().getName() != this.parent.parent.attribute.getClass().getName()
this.minus.minus.cut.getClass().getName() != this.parent.attribute.getClass().getName()
this.cut.getClass().getName() != this.parent.attribute.getClass().getName()
this.minus.plus.cut.getClass().getName() != this.parent.attribute.getClass().getName()
this.plus.cut.getClass().getName() != this.parent.parent.attribute.getClass().getName()
===========================================================================
org.apache.commons.math3.genetics.TournamentSelection.select(org.apache.commons.math3.genetics.Population):::EXIT
return.first.fitness != return.second.fitness
===========================================================================
org.apache.commons.math3.geometry.partitioning.BSPTree.getCell(org.apache.commons.math3.geometry.Vector):::ENTER
this.cut.getClass().getName() != this.parent.parent.attribute.getClass().getName()
this.plus.cut.getClass().getName() != this.parent.parent.attribute.getClass().getName()
this.plus.cut.getClass().getName() != this.parent.attribute.getClass().getName()
this.plus.minus.cut.getClass().getName() != this.parent.attribute.getClass().getName()
this.minus.minus.cut.getClass().getName() != this.parent.parent.attribute.getClass().getName()
this.minus.cut.getClass().getName() != this.parent.attribute.getClass().getName()
this.minus.cut.getClass().getName() != this.parent.parent.attribute.getClass().getName()
this.minus.minus.cut.getClass().getName() != this.parent.attribute.getClass().getName()
this.minus.plus.cut.getClass().getName() != this.parent.parent.attribute.getClass().getName()
this.cut.getClass().getName() != this.parent.attribute.getClass().getName()
this.minus.plus.cut.getClass().getName() != this.parent.attribute.getClass().getName()
this.plus.minus.cut.getClass().getName() != this.parent.parent.attribute.getClass().getName()
===========================================================================
org.apache.commons.math3.geometry.partitioning.AbstractRegion.setSize(double):::EXIT
this.tree.plus.cut.getClass().getName() != orig(this.getClass().getName())
===========================================================================
org.apache.commons.math3.optimization.linear.SimplexTableau.normalize(org.apache.commons.math3.optimization.linear.LinearConstraint):::EXIT261
constraint.value < return.value
this.epsilon >= constraint.value
===========================================================================
org.apache.commons.math3.geometry.partitioning.BSPTree.copySelf():::EXIT184
this.parent.attribute == return.parent
this.parent.minus.attribute.getClass().getName() == java.lang.Boolean.class
this.parent.attribute == null
this.parent.parent.attribute == this.parent.attribute
this.parent.parent.attribute == null
this.parent.parent.attribute == return.parent
===========================================================================
org.apache.commons.math3.geometry.partitioning.AbstractRegion.setBarycenter(org.apache.commons.math3.geometry.Vector):::EXIT
this.tree.plus.cut.getClass().getName() != orig(this.getClass().getName())
this.tree.plus.cut.getClass().getName() != orig(this.barycenter.getClass().getName())
===========================================================================
org.apache.commons.math3.geometry.partitioning.AbstractRegion.side(org.apache.commons.math3.geometry.partitioning.Hyperplane):::EXIT
this.tree.minus.attribute.getClass().getName() == this.tree.attribute.getClass().getName()
this.tree.plus.attribute.getClass().getName() != this.tree.attribute.getClass().getName()
===========================================================================
org.apache.commons.math3.optimization.linear.SimplexTableau.normalize(org.apache.commons.math3.optimization.linear.LinearConstraint):::EXIT
(constraint.value < return.value)  ==>  (this.f.constantTerm == 0.0)
(constraint.value < return.value)  ==>  (return.value % constraint.value == 0)
(constraint.value < return.value)  ==>  (constraint.value % return.value == 0)
(constraint.value < return.value)  ==>  (this.f.constantTerm == this.epsilon)
(constraint.value < return.value)  ==>  (constraint.value + return.value == 0)
===========================================================================
org.apache.commons.math3.geometry.partitioning.utilities.AVLTree.isEmpty():::ENTER
this.top.right.element.getClass().getName() == org.apache.commons.math3.geometry.euclidean.twod.PolygonsSet$ComparableSegment.class
===========================================================================
org.apache.commons.math3.geometry.partitioning.BSPTree.split(org.apache.commons.math3.geometry.partitioning.SubHyperplane):::EXIT510
this.minus.attribute.getClass().getName() == this.parent.minus.attribute.getClass().getName()
this.minus.attribute.getClass().getName() == this.parent.plus.attribute.getClass().getName()
this.parent.attribute == null
this.plus.attribute.getClass().getName() == this.minus.minus.attribute.getClass().getName()
this.minus.plus.attribute.getClass().getName() == this.minus.minus.attribute.getClass().getName()
this.plus.attribute.getClass().getName() == this.parent.minus.attribute.getClass().getName()
this.minus.minus.attribute.getClass().getName() == return.minus.attribute.getClass().getName()
this.parent.minus.attribute.getClass().getName() == return.plus.attribute.getClass().getName()
this.minus.attribute.getClass().getName() == java.lang.Boolean.class
this.minus.plus.attribute.getClass().getName() == return.minus.attribute.getClass().getName()
this.parent.parent.attribute == this.parent.attribute
this.parent.plus.attribute.getClass().getName() == return.minus.attribute.getClass().getName()
this.minus.minus.attribute.getClass().getName() == this.parent.minus.attribute.getClass().getName()
this.parent.attribute == return.parent
return.plus.attribute.getClass().getName() == java.lang.Boolean.class
this.parent.minus.attribute.getClass().getName() == java.lang.Boolean.class
this.parent.parent.attribute == return.parent
this.plus.attribute.getClass().getName() == return.plus.attribute.getClass().getName()
this.minus.plus.attribute.getClass().getName() == this.parent.minus.attribute.getClass().getName()
this.parent.parent.attribute == null
return.minus.attribute.getClass().getName() == java.lang.Boolean.class
this.minus.attribute.getClass().getName() == return.minus.attribute.getClass().getName()
this.minus.minus.attribute.getClass().getName() == java.lang.Boolean.class
this.minus.plus.attribute.getClass().getName() == return.plus.attribute.getClass().getName()
this.parent.plus.attribute.getClass().getName() == return.plus.attribute.getClass().getName()
this.plus.attribute.getClass().getName() == return.minus.attribute.getClass().getName()
this.minus.minus.attribute.getClass().getName() == return.plus.attribute.getClass().getName()
this.plus.attribute.getClass().getName() == this.minus.attribute.getClass().getName()
this.parent.minus.attribute.getClass().getName() == return.minus.attribute.getClass().getName()
===========================================================================
org.apache.commons.math3.geometry.partitioning.AbstractRegion.side(org.apache.commons.math3.geometry.partitioning.Hyperplane):::ENTER
this.tree.minus.attribute.getClass().getName() == this.tree.attribute.getClass().getName()
this.tree.plus.attribute.getClass().getName() != this.tree.attribute.getClass().getName()
